Advanced R: Navigating the Cycle of Data Science
…
Just checking

prices_nested$data[[1]] # get the first item of the list

## # A tibble: 365 x 2
##    date       price_per
##    <date>         <dbl>
##  1 2020-04-01      62.5
##  2 2020-04-02      62.5
##  3 2020-04-03      75  
##  4 2020-04-04      75  
##  5 2020-04-05      62.5
##  6 2020-04-06      62.5
##  7 2020-04-07      62.5
##  8 2020-04-08      62.5
##  9 2020-04-09      62.5
## 10 2020-04-10      75  
## #  with 355 more rows
…
